{
  "id": "foundry-core-zh-tw",
  "title": "Foundry VTT 正體中文（臺灣）",
  "version": "12.331.01",
  "description": "為 FVTT 核心系统增加正體中文。",
  "coreTranslation": true,
  "compatibility": {
    "minimum": "10",
    "verified": "12",
    "maximum": "12"
  },
  "authors": [
    {
      "name": "sassttrpg",
      "flags": {}
    }
  ],
  "languages": [
    {
      "lang": "zh-tw",
      "name": "正體中文",
      "path": "lang/zh-tw.json",
      "flags": {}
    }
  ],
  "url": "https://gitlab.com/fvtt-zh_TW/foundry-core-zh-tw",
  "manifest": "https://gitlab.com/fvtt-zh_TW/foundry-core-zh-tw/-/raw/12.331.01/module.json",
  "download": "https://gitlab.com/fvtt-zh_TW/foundry-core-zh-tw/-/archive/12.331.01/foundry-core-zh-tw-12.331.01.zip"
}